…
``` r
lalonde
#> # A tibble: 722 × 10
#>    data_id    treat   age education black hispanic married nodegree  re75   re78
#>    <chr>      <dbl> <dbl>     <dbl> <dbl>    <dbl>   <dbl>    <dbl> <dbl>  <dbl>
#>  1 Lalonde S…     1    37        11     1        0       1        1     0  9930.
#>  2 Lalonde S…     1    22         9     0        1       0        1     0  3596.
#>  3 Lalonde S…     1    30        12     1        0       0        0     0 24909.
#>  4 Lalonde S…     1    27        11     1        0       0        1     0  7506.
#>  5 Lalonde S…     1    33         8     1        0       0        1     0   290.
#>  6 Lalonde S…     1    22         9     1        0       0        1     0  4056.
#>  7 Lalonde S…     1    23        12     1        0       0        0     0     0 
#>  8 Lalonde S…     1    32        11     1        0       0        1     0  8472.
#>  9 Lalonde S…     1    22        16     1        0       0        0     0  2164.
#> 10 Lalonde S…     1    33        12     0        0       1        0     0 12418.
#> # ℹ 712 more rows
```
…
